Data on Scholarships in CAPES International Mobility Programs • capesData
…
Data were collected from the CAPES/Brazil (Coordenação de Aperfeiçoamento de Pessoal de Nível Superior) https://dadosabertos.capes.gov.br/dataset/, referring to the international mobility programs from 2010 to 2019 funded by the Brazilian government.

The capesData package contains two datasets.

library(capesData)

We will also load the tidyverse package for pretty printing of tibbles and some code examples.

library(tidyverse)

One is called capesData, and is a simplified version of the raw data; see ?capesData for more info:

capesData
#> # A tibble: 146,036 × 14
#>    ID_PROCESSO NM_NIVEL AN_INICIO ME_INICIO AN_FIM ME_FIM NM_IES_ORIGEM_PRINCI…¹
#>    <chr>       <chr>        <dbl> <chr>      <dbl> <chr>  <chr>                 
#>  1 3038-11-4   GRADUAÇ…      2011 08          2012 05     UNIVERSIDADE FEDERAL …
#>  2 3038-11-4   GRADUAÇ…      2011 08          2012 05     UNIVERSIDADE FEDERAL …
#>  3 402509      DOUTORA…      2007 04          2011 03     PONTIFÍCIA UNIVERSIDA…
#>  4 1091272     DOUTORA…      2012 03          2015 02     UNIVERSIDADE DE BRASÍ…
#>  5 623546      MESTRAD…      2009 12          2010 05     UNIVERSIDADE FEDERAL …
#>  6 0963-10-0   ESTÁGIO…      2010 05          2010 07     UNIVERSIDADE DE SÃO P…
#>  7 9904-11-5   DOUTORA…      2012 05          2013 04     UNIVERSIDADE FEDERAL …
#>  8 9904-11-5   DOUTORA…      2012 05          2013 04     UNIVERSIDADE FEDERAL …
#>  9 9202-12-9   DOUTORA…      2012 09          2013 04     UNIVERSIDADE DE BRASÍ…
#> 10 948932      DOUTORA…      2011 04          2011 09     UNIVERSIDADE FEDERAL …
#> # ℹ 146,026 more rows
#> # ℹ abbreviated name: ¹​NM_IES_ORIGEM_PRINCIPAL_DA
#> # ℹ 7 more variables: NM_UF_IES_ORIGEM <chr>, NM_IES_ESTUDO_PRINCIPAL_DA <chr>,
#> #   NM_PAIS_IES_ESTUDO <chr>, NM_GRANDE_AREA <chr>, NM_AREA_CONHECIMENTO <chr>,
#> #   NM_AREA_AVALIACAO <chr>, NM_PROGRAMA <chr>

The second dataset is capesData_raw, and contains all the variables and original names as downloaded; see ?capesData_raw for more info.

capesData_raw
#> # A tibble: 146,036 × 51
#>    ID_PROCESSO NM_NIVEL AN_INICIO ME_INICIO AN_FIM ME_FIM NM_IES_ORIGEM_PRINCI…¹
#>    <chr>       <chr>        <dbl> <chr>      <dbl> <chr>  <chr>                 
#>  1 3038-11-4   GRADUAÇ…      2011 08          2012 05     UNIVERSIDADE FEDERAL …
#>  2 3038-11-4   GRADUAÇ…      2011 08          2012 05     UNIVERSIDADE FEDERAL …
#>  3 402509      DOUTORA…      2007 04          2011 03     PONTIFÍCIA UNIVERSIDA…
#>  4 1091272     DOUTORA…      2012 03          2015 02     UNIVERSIDADE DE BRASÍ…
#>  5 623546      MESTRAD…      2009 12          2010 05     UNIVERSIDADE FEDERAL …
#>  6 0963-10-0   ESTÁGIO…      2010 05          2010 07     UNIVERSIDADE DE SÃO P…
#>  7 9904-11-5   DOUTORA…      2012 05          2013 04     UNIVERSIDADE FEDERAL …
#>  8 9904-11-5   DOUTORA…      2012 05          2013 04     UNIVERSIDADE FEDERAL …
#>  9 9202-12-9   DOUTORA…      2012 09          2013 04     UNIVERSIDADE DE BRASÍ…
#> 10 948932      DOUTORA…      2011 04          2011 09     UNIVERSIDADE FEDERAL …
#> # ℹ 146,026 more rows
#> # ℹ abbreviated name: ¹​NM_IES_ORIGEM_PRINCIPAL_DA
#> # ℹ 44 more variables: NM_UF_IES_ORIGEM <chr>,
#> #   NM_IES_ESTUDO_PRINCIPAL_DA <chr>, NM_PAIS_IES_ESTUDO <chr>,
#> #   NM_GRANDE_AREA <chr>, NM_AREA_CONHECIMENTO <chr>, NM_AREA_AVALIACAO <chr>,
#> #   NM_PROGRAMA <chr>, CD_MOEDA <chr>, VL_TOTAL_RECEBIDO_MOEDA <dbl>,
#> #   VL_AUX_DESLOCAMENTO <dbl>, VL_ADICIONAL_LOCALIDADE <dbl>, …

Examples

capesData |>
  count(NM_NIVEL)
#> # A tibble: 44 × 2
#>    NM_NIVEL                                       n
#>    <chr>                                      <int>
#>  1 APERFEIÇOAMENTO                               25
#>  2 APRIMORAMENTO                                  1
#>  3 ARTICULADOR PEDAGÓGICO                         6
#>  4 CAPACITAÇÃO                                   56
#>  5 CAPACITAÇÃO PROFESSORES DA EDUCAÇÃO BÁSICA   783
#>  6 CÁTEDRA                                       31
#>  7 CÁTEDRA  HARVARD                               1
#>  8 CÁTEDRA ESTADOS UNIDOS                         5
#>  9 CÁTEDRA EUROPA                                21
#> 10 DOUTOR JÚNIOR                                 31
#> # ℹ 34 more rows
…
