…
## Examples

You can find these and more code examples for exploring `capesData` in
vignette(“examples”).

For example:

``` r
library(tidyverse)
capesData |>
  count(NM_NIVEL)
#> # A tibble: 44 × 2
#>    NM_NIVEL                                       n
#>    <chr>                                      <int>
#>  1 APERFEIÇOAMENTO                               25
#>  2 APRIMORAMENTO                                  1
#>  3 ARTICULADOR PEDAGÓGICO                         6
#>  4 CAPACITAÇÃO                                   56
#>  5 CAPACITAÇÃO PROFESSORES DA EDUCAÇÃO BÁSICA   783
#>  6 CÁTEDRA                                       31
#>  7 CÁTEDRA  HARVARD                               1
#>  8 CÁTEDRA ESTADOS UNIDOS                         5
#>  9 CÁTEDRA EUROPA                                21
#> 10 DOUTOR JÚNIOR                                 31
#> # ℹ 34 more rows
…
