Data on Scholarships in CAPES International Mobility Programs — capesData_raw • capesData
…
VL_AUX_DESLOCAMENTO_PESQUISA
Amount received as travel allowance for research.

    Source

    Created by Leonardo Biazoli with data provided by CAPES/BRAZIL https://dadosabertos.capes.gov.br/dataset/.

    See also

    capesData

    Examples

capesData_raw
#> # A tibble: 146,036 × 51
#>    ID_PROCESSO NM_NIVEL AN_INICIO ME_INICIO AN_FIM ME_FIM NM_IES_ORIGEM_PRINCI…¹
#>    <chr>       <chr>        <dbl> <chr>      <dbl> <chr>  <chr>                 
#>  1 3038-11-4   GRADUAÇ…      2011 08          2012 05     UNIVERSIDADE FEDERAL …
#>  2 3038-11-4   GRADUAÇ…      2011 08          2012 05     UNIVERSIDADE FEDERAL …
#>  3 402509      DOUTORA…      2007 04          2011 03     PONTIFÍCIA UNIVERSIDA…
#>  4 1091272     DOUTORA…      2012 03          2015 02     UNIVERSIDADE DE BRASÍ…
#>  5 623546      MESTRAD…      2009 12          2010 05     UNIVERSIDADE FEDERAL …
#>  6 0963-10-0   ESTÁGIO…      2010 05          2010 07     UNIVERSIDADE DE SÃO P…
#>  7 9904-11-5   DOUTORA…      2012 05          2013 04     UNIVERSIDADE FEDERAL …
#>  8 9904-11-5   DOUTORA…      2012 05          2013 04     UNIVERSIDADE FEDERAL …
#>  9 9202-12-9   DOUTORA…      2012 09          2013 04     UNIVERSIDADE DE BRASÍ…
#> 10 948932      DOUTORA…      2011 04          2011 09     UNIVERSIDADE FEDERAL …
#> # ℹ 146,026 more rows
#> # ℹ abbreviated name: ¹​NM_IES_ORIGEM_PRINCIPAL_DA
#> # ℹ 44 more variables: NM_UF_IES_ORIGEM <chr>,
#> #   NM_IES_ESTUDO_PRINCIPAL_DA <chr>, NM_PAIS_IES_ESTUDO <chr>,
#> #   NM_GRANDE_AREA <chr>, NM_AREA_CONHECIMENTO <chr>, NM_AREA_AVALIACAO <chr>,
#> #   NM_PROGRAMA <chr>, CD_MOEDA <chr>, VL_TOTAL_RECEBIDO_MOEDA <dbl>,
#> #   VL_AUX_DESLOCAMENTO <dbl>, VL_ADICIONAL_LOCALIDADE <dbl>, …
…
